/opt/bitnami/ruby/bin/ruby extconf.rb 
creating Makefile

make "DESTDIR=" clean

make "DESTDIR="
compiling parser.c
linking shared-object json/ext/parser.so

make "DESTDIR=" install
/usr/bin/install -c -m 0755 parser.so ./.gem.20140821-1755-meaeha/json/ext
installing default parser libraries
